CREATE TABLE SISWA(
    id_siswa varchar(5) NOT NULL,
    nama_siswa varchar(30) NOT NULL,
    birthday(dd/mm/yyyy),
    telepon varchar(15),
    email varchar(30),

    nama_course varchar(30) NOT NULL,
   

    courseld varchar(30),

);